…
- この Parquet ファイルは [zstd](https://github.com/facebook/zstd) で圧縮されています
- この Parquet ファイルは [Cloudflare R2](https://www.cloudflare.com/developer-platform/r2/) に保存されており、パブリックで誰でもアクセスすることができます
- この Parquet ファイルの [Access-Control-Allow-Origin](https://developer.mozilla.org/en-US/docs/Web/HTTP/Headers/Access-Control-Allow-Origin) は `http://localhost:5173/` からのアクセスのみを許可しています
- この Parquet ファイルのライセンスは [CC BY-NC-ND 4.0](https://creativecommons.org/licenses/by-nc-nd/4.0/) です

### DuckDB でアクセスしてみる

```sql
D SELECT * FROM parquet_scan('https://duckdb-wasm.shiguredo.jp/ES6VB3580N3R7EGKGT0R9NKWPR.parquet');
┌──────────────────────┬──────────────────────┬─────────────────┬───┬───────────────────┬─────────────────────┐
│    connection_id     │          id          │      label      │ … │   rtc_timestamp   │      rtc_type       │
│       varchar        │       varchar        │     varchar     │   │      double       │       varchar       │
├──────────────────────┼──────────────────────┼─────────────────┼───┼───────────────────┼─────────────────────┤
│ JYCQZ5HC3938558D2N…  │ D4WM4JQMJ17CHA8XXK…  │ WebRTC SFU Sora │ … │ 1725110878505.041 │ media-playout       │
│ JYCQZ5HC3938558D2N…  │ D4WM4JQMJ17CHA8XXK…  │ WebRTC SFU Sora │ … │ 1725110878505.041 │ candidate-pair      │
│ JYCQZ5HC3938558D2N…  │ D4WM4JQMJ17CHA8XXK…  │ WebRTC SFU Sora │ … │ 1725110878505.041 │ candidate-pair      │
│ JYCQZ5HC3938558D2N…  │ D4WM4JQMJ17CHA8XXK…  │ WebRTC SFU Sora │ … │ 1725110878505.041 │ data-channel        │
│ JYCQZ5HC3938558D2N…  │ D4WM4JQMJ17CHA8XXK…  │ WebRTC SFU Sora │ … │ 1725110878505.041 │ data-channel        │
│ JYCQZ5HC3938558D2N…  │ D4WM4JQMJ17CHA8XXK…  │ WebRTC SFU Sora │ … │ 1725110878505.041 │ data-channel        │
│ JYCQZ5HC3938558D2N…  │ D4WM4JQMJ17CHA8XXK…  │ WebRTC SFU Sora │ … │ 1725110878505.041 │ data-channel        │
│ JYCQZ5HC3938558D2N…  │ D4WM4JQMJ17CHA8XXK…  │ WebRTC SFU Sora │ … │ 1725110878505.041 │ outbound-rtp        │
│ JYCQZ5HC3938558D2N…  │ D4WM4JQMJ17CHA8XXK…  │ WebRTC SFU Sora │ … │ 1725110878505.041 │ outbound-rtp        │
│ JYCQZ5HC3938558D2N…  │ D4WM4JQMJ17CHA8XXK…  │ WebRTC SFU Sora │ … │   1725110873532.0 │ remote-inbound-rtp  │
│ JYCQZ5HC3938558D2N…  │ D4WM4JQMJ17CHA8XXK…  │ WebRTC SFU Sora │ … │   1725110877738.0 │ remote-inbound-rtp  │
│ JYCQZ5HC3938558D2N…  │ D4WM4JQMJ17CHA8XXK…  │ WebRTC SFU Sora │ … │ 1725110878505.041 │ media-source        │
│ JYCQZ5HC3938558D2N…  │ D4WM4JQMJ17CHA8XXK…  │ WebRTC SFU Sora │ … │ 1725110878505.041 │ media-source        │
│ JYCQZ5HC3938558D2N…  │ D4WM4JQMJ17CHA8XXK…  │ WebRTC SFU Sora │ … │ 1725110878505.041 │ transport           │
│ JYCQZ5HC3938558D2N…  │ GGJREB7S6D6XXDYS1Y…  │ WebRTC SFU Sora │ … │ 1725110893504.201 │ media-playout       │
│ JYCQZ5HC3938558D2N…  │ GGJREB7S6D6XXDYS1Y…  │ WebRTC SFU Sora │ … │ 1725110893504.201 │ candidate-pair      │
│ JYCQZ5HC3938558D2N…  │ GGJREB7S6D6XXDYS1Y…  │ WebRTC SFU Sora │ … │ 1725110893504.201 │ candidate-pair      │
│ JYCQZ5HC3938558D2N…  │ GGJREB7S6D6XXDYS1Y…  │ WebRTC SFU Sora │ … │ 1725110893504.201 │ data-channel        │
│ JYCQZ5HC3938558D2N…  │ GGJREB7S6D6XXDYS1Y…  │ WebRTC SFU Sora │ … │ 1725110893504.201 │ data-channel        │
│ JYCQZ5HC3938558D2N…  │ GGJREB7S6D6XXDYS1Y…  │ WebRTC SFU Sora │ … │ 1725110893504.201 │ data-channel        │
│          ·           │          ·           │        ·        │ · │         ·         │      ·              │
│          ·           │          ·           │        ·        │ · │         ·         │      ·              │
│          ·           │          ·           │        ·        │ · │         ·         │      ·              │
│ SV5WZSYWFN5HH2TQFG…  │ PJC908KTKX0NS9K81F…  │ WebRTC SFU Sora │ … │ 1725121716070.904 │ media-source        │
│ SV5WZSYWFN5HH2TQFG…  │ PJC908KTKX0NS9K81F…  │ WebRTC SFU Sora │ … │ 1725121716070.904 │ transport           │
│ JYCQZ5HC3938558D2N…  │ MCJ3JZNT4N5YN84HNR…  │ WebRTC SFU Sora │ … │ 1725121724397.442 │ media-playout       │
│ JYCQZ5HC3938558D2N…  │ MCJ3JZNT4N5YN84HNR…  │ WebRTC SFU Sora │ … │ 1725121724397.442 │ candidate-pair      │
│ JYCQZ5HC3938558D2N…  │ MCJ3JZNT4N5YN84HNR…  │ WebRTC SFU Sora │ … │ 1725121724397.442 │ candidate-pair      │
│ JYCQZ5HC3938558D2N…  │ MCJ3JZNT4N5YN84HNR…  │ WebRTC SFU Sora │ … │ 1725121724397.442 │ data-channel        │
│ JYCQZ5HC3938558D2N…  │ MCJ3JZNT4N5YN84HNR…  │ WebRTC SFU Sora │ … │ 1725121724397.442 │ data-channel        │
│ JYCQZ5HC3938558D2N…  │ MCJ3JZNT4N5YN84HNR…  │ WebRTC SFU Sora │ … │ 1725121724397.442 │ data-channel        │
│ JYCQZ5HC3938558D2N…  │ MCJ3JZNT4N5YN84HNR…  │ WebRTC SFU Sora │ … │ 1725121724397.442 │ data-channel        │
│ JYCQZ5HC3938558D2N…  │ MCJ3JZNT4N5YN84HNR…  │ WebRTC SFU Sora │ … │ 1725121724397.442 │ inbound-rtp         │
│ JYCQZ5HC3938558D2N…  │ MCJ3JZNT4N5YN84HNR…  │ WebRTC SFU Sora │ … │ 1725121724397.442 │ inbound-rtp         │
│ JYCQZ5HC3938558D2N…  │ MCJ3JZNT4N5YN84HNR…  │ WebRTC SFU Sora │ … │ 1725121724397.442 │ outbound-rtp        │
│ JYCQZ5HC3938558D2N…  │ MCJ3JZNT4N5YN84HNR…  │ WebRTC SFU Sora │ … │ 1725121724397.442 │ outbound-rtp        │
│ JYCQZ5HC3938558D2N…  │ MCJ3JZNT4N5YN84HNR…  │ WebRTC SFU Sora │ … │   1725121721329.0 │ remote-inbound-rtp  │
│ JYCQZ5HC3938558D2N…  │ MCJ3JZNT4N5YN84HNR…  │ WebRTC SFU Sora │ … │   1725121723603.0 │ remote-inbound-rtp  │
│ JYCQZ5HC3938558D2N…  │ MCJ3JZNT4N5YN84HNR…  │ WebRTC SFU Sora │ … │   1725121721445.0 │ remote-outbound-rtp │
│ JYCQZ5HC3938558D2N…  │ MCJ3JZNT4N5YN84HNR…  │ WebRTC SFU Sora │ … │   1725121724271.0 │ remote-outbound-rtp │
│ JYCQZ5HC3938558D2N…  │ MCJ3JZNT4N5YN84HNR…  │ WebRTC SFU Sora │ … │ 1725121724397.442 │ media-source        │
│ JYCQZ5HC3938558D2N…  │ MCJ3JZNT4N5YN84HNR…  │ WebRTC SFU Sora │ … │ 1725121724397.442 │ media-source        │
│ JYCQZ5HC3938558D2N…  │ MCJ3JZNT4N5YN84HNR…  │ WebRTC SFU Sora │ … │ 1725121724397.442 │ transport           │
├──────────────────────┴──────────────────────┴─────────────────┴───┴───────────────────┴─────────────────────┤
│ 15329 rows (40 shown)                                                                  20 columns (5 shown) │
└─────────────────────────────────────────────────────────────────────────────────────────────────────────────┘
```
…
